<?xml version="1.0" encoding="UTF-8" standalone="no"?>
<!-- Created with Inkscape (http://www.inkscape.org/) -->

<svg
   width="69.192169mm"
   height="22.723272mm"
   viewBox="0 0 69.192169 22.723272"
   version="1.1"
   id="svg5"
   sodipodi:docname="logoWhite.svg"
   inkscape:version="1.1 (c68e22c387, 2021-05-23)"
   xmlns:inkscape="http://www.inkscape.org/namespaces/inkscape"
   xmlns:sodipodi="http://sodipodi.sourceforge.net/DTD/sodipodi-0.dtd"
   xmlns="http://www.w3.org/2000/svg"
   xmlns:svg="http://www.w3.org/2000/svg">
  <sodipodi:namedview
     id="namedview7"
     pagecolor="#ffffff"
     bordercolor="#666666"
     borderopacity="1.0"
     inkscape:pageshadow="2"
     inkscape:pageopacity="0.0"
     inkscape:pagecheckerboard="0"
     inkscape:document-units="mm"
     showgrid="false"
     showguides="true"
     inkscape:guide-bbox="true"
     guidetolerance="10000"
     inkscape:snap-perpendicular="true"
     fit-margin-top="0"
     fit-margin-left="0"
     fit-margin-right="0"
     fit-margin-bottom="0"
     inkscape:zoom="1.5862247"
     inkscape:cx="18.597617"
     inkscape:cy="155.71564"
     inkscape:window-width="1920"
     inkscape:window-height="1055"
     inkscape:window-x="0"
     inkscape:window-y="0"
     inkscape:window-maximized="1"
     inkscape:current-layer="text7316">
    <sodipodi:guide
       position="0.060661192,24.096622"
       orientation="1,0"
       id="guide12982" />
    <sodipodi:guide
       position="0.060660192,24.096622"
       orientation="1,0"
       id="guide12984" />
    <sodipodi:guide
       position="0.060660192,24.096622"
       orientation="1,0"
       id="guide12986" />
    <sodipodi:guide
       position="0.060661192,24.096622"
       orientation="1,0"
       id="guide12988" />
    <sodipodi:guide
       position="0.060659192,24.096622"
       orientation="1,0"
       id="guide12990" />
    <sodipodi:guide
       position="0.060658192,24.096622"
       orientation="0,-1"
       id="guide12992" />
    <sodipodi:guide
       position="0.060660192,24.096622"
       orientation="1,0"
       id="guide12994" />
    <sodipodi:guide
       position="0.060661192,24.096622"
       orientation="1,0"
       id="guide12996" />
    <sodipodi:guide
       position="69.194429,-18.389889"
       orientation="1,0"
       id="guide13027" />
  </sodipodi:namedview>
  <defs
     id="defs2" />
  <g
     inkscape:label="Layer 1"
     inkscape:groupmode="layer"
     id="layer1"
     transform="translate(-25.381545,-107.17262)">
    <g
       aria-label="HUMOS"
       id="text7316"
       style="font-size:22.3706px;line-height:1.25;font-family:'Source Sans Pro';-inkscape-font-specification:'Source Sans Pro, Normal';stroke-width:1.39816">
      <path
         d="m 25.381545,122.11618 v -14.67511 h 1.85676 v 6.15191 h 6.823032 v -6.15191 h 1.879131 v 14.67511 h -1.879131 v -6.91251 h -6.823032 v 6.91251 z"
         id="path13058"
         style="fill:#ffffff" />
      <path
         d="m 45.179492,122.38463 q -1.11853,0 -2.102836,-0.31319 -0.961936,-0.33556 -1.677795,-1.07379 -0.693488,-0.7606 -1.096159,-1.96861 -0.402671,-1.20801 -0.402671,-2.97529 v -8.61268 h 1.85676 v 8.65742 q 0,1.31986 0.268447,2.21469 0.268447,0.89482 0.715859,1.43172 0.469783,0.53689 1.096159,0.78297 0.626377,0.2237 1.342236,0.2237 0.73823,0 1.364607,-0.2237 0.626377,-0.24608 1.096159,-0.78297 0.469783,-0.5369 0.73823,-1.43172 0.268447,-0.89483 0.268447,-2.21469 v -8.65742 h 1.789648 v 8.61268 q 0,1.76728 -0.40267,2.97529 -0.402671,1.20801 -1.11853,1.96861 -0.693489,0.73823 -1.655425,1.07379 -0.961936,0.31319 -2.080466,0.31319 z"
         id="path13060"
         style="fill:#ffffff" />
      <path
         d="m 54.396147,122.11618 v -14.67511 h 2.23706 l 2.818696,7.82971 q 0.268447,0.7606 0.514524,1.54357 0.268447,0.7606 0.536894,1.5212 h 0.08948 q 0.268447,-0.7606 0.492153,-1.5212 0.246076,-0.78297 0.514524,-1.54357 l 2.773954,-7.82971 h 2.25943 v 14.67511 h -1.744906 v -8.07579 q 0,-0.9843 0.08948,-2.16994 0.08948,-1.18565 0.156594,-2.16995 h -0.08948 l -1.163271,3.33322 -2.773955,7.606 h -1.230383 l -2.773954,-7.606 -1.163271,-3.33322 h -0.08948 q 0.06711,0.9843 0.134224,2.16995 0.08948,1.18564 0.08948,2.16994 v 8.07579 z"
         id="path13062"
         style="fill:#ffffff" />
      <path
         d="m 76.073245,122.38463 q -1.386977,0 -2.550248,-0.5369 -1.140901,-0.53689 -1.968613,-1.5212 -0.827712,-1.00667 -1.297495,-2.41602 -0.447412,-1.43172 -0.447412,-3.199 0,-1.76728 0.447412,-3.15425 0.469783,-1.40935 1.297495,-2.37129 0.827712,-0.9843 1.968613,-1.49883 1.163271,-0.51452 2.550248,-0.51452 1.386977,0 2.527878,0.53689 1.163271,0.51453 1.990983,1.49883 0.850083,0.96194 1.297495,2.37129 0.469783,1.38698 0.469783,3.13188 0,1.76728 -0.469783,3.199 -0.447412,1.40935 -1.297495,2.41602 -0.827712,0.98431 -1.990983,1.5212 -1.140901,0.5369 -2.527878,0.5369 z m 0,-1.63306 q 0.984306,0 1.767277,-0.42504 0.805342,-0.42504 1.364607,-1.20801 0.581636,-0.80534 0.894824,-1.9015 0.313188,-1.11853 0.313188,-2.50551 0,-1.3646 -0.313188,-2.46076 -0.313188,-1.09616 -0.894824,-1.85676 -0.559265,-0.7606 -1.364607,-1.16328 -0.782971,-0.42504 -1.767277,-0.42504 -0.984306,0 -1.789648,0.42504 -0.782971,0.40268 -1.364607,1.16328 -0.559265,0.7606 -0.872453,1.85676 -0.313188,1.09616 -0.313188,2.46076 0,1.38698 0.313188,2.50551 0.313188,1.09616 0.872453,1.9015 0.581636,0.78297 1.364607,1.20801 0.805342,0.42504 1.789648,0.42504 z"
         id="path13064"
         style="fill:#ffffff" />
      <path
         d="m 89.585074,122.38463 q -1.543571,0 -2.863437,-0.58164 -1.319865,-0.58163 -2.281801,-1.58831 l 1.11853,-1.2975 q 0.782971,0.82772 1.834389,1.34224 1.073789,0.49215 2.21469,0.49215 1.454089,0 2.25943,-0.64874 0.805342,-0.67112 0.805342,-1.74491 0,-0.55927 -0.201336,-0.93957 -0.178964,-0.40267 -0.514523,-0.67111 -0.313189,-0.29082 -0.760601,-0.51453 -0.447412,-0.2237 -0.961936,-0.46978 l -2.102836,-0.91719 q -0.514524,-0.22371 -1.051418,-0.5369 -0.536895,-0.31319 -0.961936,-0.7606 -0.425041,-0.44741 -0.693489,-1.05142 -0.268447,-0.62637 -0.268447,-1.43172 0,-0.82771 0.335559,-1.54357 0.35793,-0.71586 0.961936,-1.23038 0.626377,-0.53689 1.454089,-0.82771 0.850083,-0.29082 1.85676,-0.29082 1.319865,0 2.438395,0.51452 1.11853,0.49216 1.901501,1.2975 l -1.006677,1.20801 q -0.671118,-0.64875 -1.49883,-1.00668 -0.805342,-0.3803 -1.834389,-0.3803 -1.230383,0 -1.990984,0.58164 -0.738229,0.55926 -0.738229,1.56594 0,0.5369 0.201335,0.9172 0.223706,0.35793 0.581636,0.64874 0.357929,0.26845 0.782971,0.49216 0.425041,0.20133 0.872453,0.3803 l 2.080466,0.89482 q 0.626377,0.26845 1.185642,0.62638 0.559265,0.33556 0.961935,0.80534 0.402671,0.44741 0.626377,1.07379 0.246077,0.604 0.246077,1.40935 0,0.87245 -0.35793,1.63305 -0.335559,0.7606 -0.984306,1.34224 -0.648748,0.55926 -1.565942,0.89482 -0.917195,0.31319 -2.080466,0.31319 z"
         id="path13066"
         style="fill:#ffffff" />
    </g>
    <g
       aria-label="NATURAL PERFUMER"
       id="text12042"
       style="font-size:8.01359px;line-height:1.25;font-family:'Source Sans Pro';-inkscape-font-specification:'Source Sans Pro, Normal';stroke-width:0.500849;fill:#ffffff">
      <path
         d="m 25.415969,129.79973 v -5.25692 h 0.689169 l 1.899221,3.3016 0.568965,1.08985 h 0.03205 q -0.02404,-0.40068 -0.0561,-0.8254 -0.02404,-0.43273 -0.02404,-0.84944 v -2.71661 h 0.633074 v 5.25692 h -0.689169 l -1.907235,-3.30961 -0.568964,-1.08184 h -0.03205 q 0.03205,0.40068 0.0561,0.81739 0.03205,0.40869 0.03205,0.8254 v 2.74866 z"
         id="path13069"
         style="fill:#ffffff" />
      <path
         d="m 31.506292,126.85874 -0.248421,0.80136 h 1.578677 l -0.248421,-0.80136 q -0.144245,-0.44075 -0.272462,-0.87348 -0.128218,-0.44075 -0.256435,-0.89752 h -0.03205 q -0.120203,0.45677 -0.248421,0.89752 -0.128217,0.43273 -0.272462,0.87348 z m -1.602718,2.94099 1.779017,-5.25692 h 0.753277 l 1.779017,5.25692 h -0.713209 l -0.496843,-1.60272 h -1.915248 l -0.504856,1.60272 z"
         id="path13071"
         style="fill:#ffffff" />
      <path
         d="m 35.609238,129.79973 v -4.69597 h -1.586691 v -0.56095 h 3.846523 v 0.56095 h -1.586691 v 4.69597 z"
         id="path13073"
         style="fill:#ffffff" />
      <path
         d="m 40.681834,129.89589 q -0.400679,0 -0.753277,-0.11219 -0.344584,-0.1202 -0.601019,-0.38465 -0.248422,-0.27246 -0.392666,-0.7052 -0.144245,-0.43273 -0.144245,-1.0658 v -3.08524 h 0.665128 v 3.10126 q 0,0.4728 0.09616,0.79335 0.09616,0.32054 0.256435,0.51287 0.168285,0.19232 0.392666,0.28047 0.22438,0.0801 0.480815,0.0801 0.264449,0 0.488829,-0.0801 0.224381,-0.0882 0.392666,-0.28047 0.168286,-0.19233 0.264449,-0.51287 0.09616,-0.32055 0.09616,-0.79335 v -3.10126 h 0.641087 v 3.08524 q 0,0.63307 -0.144245,1.0658 -0.144244,0.43274 -0.400679,0.7052 -0.248421,0.26445 -0.593006,0.38465 -0.344584,0.11219 -0.745264,0.11219 z"
         id="path13075"
         style="fill:#ffffff" />
      <path
         d="m 43.983421,129.79973 v -5.25692 h 1.642786 q 0.400679,0 0.73725,0.0801 0.344584,0.0721 0.584992,0.24842 0.248421,0.1763 0.384652,0.45678 0.136231,0.28047 0.136231,0.68916 0,0.61705 -0.320543,0.98568 -0.320544,0.36862 -0.865468,0.50485 l 1.338269,2.29189 h -0.753277 l -1.266147,-2.21977 h -0.953617 v 2.21977 z m 0.665128,-2.76469 h 0.881494 q 0.617047,0 0.945604,-0.24842 0.328557,-0.25644 0.328557,-0.76931 0,-0.52088 -0.328557,-0.72923 -0.328557,-0.20836 -0.945604,-0.20836 h -0.881494 z"
         id="path13077"
         style="fill:#ffffff" />
      <path
         d="m 49.416609,126.85874 -0.248421,0.80136 h 1.578677 l -0.248421,-0.80136 q -0.144245,-0.44075 -0.272462,-0.87348 -0.128218,-0.44075 -0.256435,-0.89752 h -0.03205 q -0.120204,0.45677 -0.248421,0.89752 -0.128217,0.43273 -0.272462,0.87348 z m -1.602718,2.94099 1.779017,-5.25692 h 0.753277 l 1.779017,5.25692 h -0.713209 l -0.496843,-1.60272 h -1.915248 l -0.504856,1.60272 z"
         id="path13079"
         style="fill:#ffffff" />
      <path
         d="m 52.870456,129.79973 v -5.25692 h 0.665128 v 4.68795 h 2.2999 v 0.56897 z"
         id="path13081"
         style="fill:#ffffff" />
      <path
         d="m 58.367755,129.79973 v -5.25692 h 1.498541 q 0.440748,0 0.801359,0.0801 0.368626,0.0801 0.62506,0.26445 0.256435,0.1763 0.40068,0.4728 0.144245,0.2965 0.144245,0.72924 0,0.4167 -0.144245,0.72122 -0.136231,0.30452 -0.392666,0.50486 -0.256435,0.20034 -0.617046,0.30451 -0.352598,0.0962 -0.785332,0.0962 h -0.865468 v 2.08353 z m 0.665128,-2.62846 h 0.785332 q 0.689169,0 1.017726,-0.25643 0.336571,-0.26445 0.336571,-0.8254 0,-0.56897 -0.352598,-0.78534 -0.344585,-0.22438 -1.033753,-0.22438 h -0.753278 z"
         id="path13083"
         style="fill:#ffffff" />
      <path
         d="m 62.903445,129.79973 v -5.25692 h 3.029137 v 0.56095 h -2.364009 v 1.6508 h 1.995384 v 0.56897 h -1.995384 v 1.90723 h 2.444145 v 0.56897 z"
         id="path13085"
         style="fill:#ffffff" />
      <path
         d="m 67.126598,129.79973 v -5.25692 h 1.642786 q 0.400679,0 0.73725,0.0801 0.344584,0.0721 0.584992,0.24842 0.248421,0.1763 0.384652,0.45678 0.136231,0.28047 0.136231,0.68916 0,0.61705 -0.320543,0.98568 -0.320544,0.36862 -0.865468,0.50485 l 1.338269,2.29189 H 70.01149 l -1.266147,-2.21977 h -0.953617 v 2.21977 z m 0.665128,-2.76469 h 0.881494 q 0.617047,0 0.945604,-0.24842 0.328557,-0.25644 0.328557,-0.76931 0,-0.52088 -0.328557,-0.72923 -0.328557,-0.20836 -0.945604,-0.20836 h -0.881494 z"
         id="path13087"
         style="fill:#ffffff" />
      <path
         d="m 71.686317,129.79973 v -5.25692 h 3.029137 v 0.56095 h -2.364009 v 1.77902 h 2.003397 v 0.56095 h -2.003397 v 2.356 z"
         id="path13089"
         style="fill:#ffffff" />
      <path
         d="m 77.512189,129.89589 q -0.400679,0 -0.753277,-0.11219 -0.344585,-0.1202 -0.60102,-0.38465 -0.248421,-0.27246 -0.392666,-0.7052 -0.144244,-0.43273 -0.144244,-1.0658 v -3.08524 h 0.665128 v 3.10126 q 0,0.4728 0.09616,0.79335 0.09616,0.32054 0.256435,0.51287 0.168285,0.19232 0.392666,0.28047 0.22438,0.0801 0.480815,0.0801 0.264449,0 0.488829,-0.0801 0.224381,-0.0882 0.392666,-0.28047 0.168285,-0.19233 0.264448,-0.51287 0.09616,-0.32055 0.09616,-0.79335 v -3.10126 h 0.641088 v 3.08524 q 0,0.63307 -0.144245,1.0658 -0.144245,0.43274 -0.400679,0.7052 -0.248422,0.26445 -0.593006,0.38465 -0.344584,0.11219 -0.745264,0.11219 z"
         id="path13091"
         style="fill:#ffffff" />
      <path
         d="m 80.813777,129.79973 v -5.25692 h 0.801359 l 1.009712,2.80476 q 0.09616,0.27246 0.184313,0.55294 0.09616,0.27246 0.192326,0.54492 h 0.03205 q 0.09616,-0.27246 0.176299,-0.54492 0.08815,-0.28048 0.184312,-0.55294 l 0.993685,-2.80476 h 0.809373 v 5.25692 h -0.62506 v -2.89291 q 0,-0.3526 0.03205,-0.77732 0.03205,-0.42472 0.0561,-0.77731 h -0.03205 l -0.416707,1.19402 -0.993685,2.72462 h -0.440747 l -0.993685,-2.72462 -0.416707,-1.19402 h -0.03205 q 0.02404,0.35259 0.04808,0.77731 0.03205,0.42472 0.03205,0.77732 v 2.89291 z"
         id="path13093"
         style="fill:#ffffff" />
      <path
         d="m 86.639652,129.79973 v -5.25692 h 3.029136 v 0.56095 h -2.364009 v 1.6508 h 1.995384 v 0.56897 h -1.995384 v 1.90723 h 2.444145 v 0.56897 z"
         id="path13095"
         style="fill:#ffffff" />
      <path
         d="m 90.8628,129.79973 v -5.25692 h 1.642786 q 0.400679,0 0.73725,0.0801 0.344584,0.0721 0.584992,0.24842 0.248421,0.1763 0.384652,0.45678 0.136231,0.28047 0.136231,0.68916 0,0.61705 -0.320543,0.98568 -0.320544,0.36862 -0.865468,0.50485 l 1.33827,2.29189 h -0.753278 l -1.266147,-2.21977 h -0.953617 v 2.21977 z m 0.665128,-2.76469 h 0.881495 q 0.617046,0 0.945603,-0.24842 0.328557,-0.25644 0.328557,-0.76931 0,-0.52088 -0.328557,-0.72923 -0.328557,-0.20836 -0.945603,-0.20836 h -0.881495 z"
         id="path13097"
         style="fill:#ffffff" />
    </g>
  </g>
</svg>
