<svg xmlns="http://www.w3.org/2000/svg" width="261.514" height="85.883" viewBox="0 0 69.192 22.723">
  <path d="M0 14.944V.268h1.857V6.42H8.68V.268h1.879v14.676h-1.88V8.03H1.858v6.913zm19.798.268q-1.119 0-2.103-.313-.962-.336-1.678-1.074-.693-.76-1.096-1.969-.403-1.208-.403-2.975V.268h1.857v8.658q0 1.32.269 2.215.268.894.716 1.431.47.537 1.096.783.626.224 1.342.224.738 0 1.365-.224.626-.246 1.096-.783.47-.537.738-1.431.268-.895.268-2.215V.268h1.79v8.613q0 1.767-.403 2.975-.402 1.208-1.118 1.969-.694.738-1.656 1.074-.962.313-2.08.313zm9.217-.268V.268h2.237l2.818 7.83q.269.76.515 1.544l.537 1.52h.09q.268-.76.491-1.52.246-.783.515-1.544l2.774-7.83h2.26v14.676h-1.746V6.868q0-.985.09-2.17.09-1.186.156-2.17h-.089L38.5 5.86l-2.774 7.606h-1.23L31.72 5.861l-1.163-3.333h-.09q.068.984.135 2.17.09 1.185.09 2.17v8.076zm21.677.268q-1.387 0-2.55-.537-1.141-.537-1.97-1.521-.827-1.007-1.297-2.416-.447-1.432-.447-3.2 0-1.766.447-3.153.47-1.41 1.298-2.372Q47 1.03 48.14.515 49.305 0 50.691 0q1.388 0 2.529.537 1.163.514 1.99 1.499.85.962 1.298 2.371.47 1.387.47 3.132 0 1.767-.47 3.199-.447 1.41-1.297 2.416-.828.984-1.991 1.521-1.141.537-2.528.537zm0-1.633q.984 0 1.767-.425.805-.425 1.365-1.208.581-.805.894-1.902.314-1.118.314-2.505 0-1.365-.314-2.46-.313-1.097-.894-1.858-.56-.76-1.365-1.163-.783-.425-1.767-.425-.985 0-1.79.425-.783.403-1.365 1.163-.559.761-.872 1.857-.313 1.096-.313 2.46 0 1.388.313 2.506.313 1.097.872 1.902.582.783 1.365 1.208.805.425 1.79.425zm13.512 1.633q-1.544 0-2.864-.582-1.32-.581-2.282-1.588l1.119-1.297q.783.827 1.834 1.342 1.074.492 2.215.492 1.454 0 2.26-.649.805-.67.805-1.745 0-.559-.202-.94-.179-.402-.514-.67-.313-.291-.76-.515-.448-.224-.963-.47l-2.103-.917q-.514-.224-1.051-.537-.537-.313-.962-.76-.425-.448-.693-1.052-.269-.626-.269-1.432 0-.827.336-1.543.358-.716.962-1.23.626-.537 1.454-.828Q63.376 0 64.382 0q1.32 0 2.439.515 1.118.492 1.901 1.297L67.716 3.02q-.671-.649-1.5-1.007-.804-.38-1.834-.38-1.23 0-1.99.582-.739.559-.739 1.566 0 .537.202.917.223.358.581.649.358.268.783.492.425.201.873.38l2.08.895q.627.268 1.186.626.559.336.962.806.402.447.626 1.073.246.604.246 1.41 0 .872-.358 1.633-.335.76-.984 1.342-.649.56-1.566.895-.917.313-2.08.313zM.034 22.627V17.37h.69l1.899 3.302.569 1.09h.032q-.024-.401-.056-.826-.024-.432-.024-.85V17.37h.633v5.257h-.69l-1.907-3.31-.569-1.081H.58q.032.4.056.817.032.409.032.825v2.75zm6.091-2.941-.249.801h1.579l-.248-.8q-.145-.442-.273-.874-.128-.441-.256-.898h-.032q-.12.457-.249.898-.128.432-.272.873zm-1.603 2.941 1.779-5.257h.753l1.78 5.257H8.12l-.497-1.603H5.708l-.505 1.603zm5.706 0v-4.696H8.64v-.56h3.847v.56H10.9v4.696zm5.072.096q-.4 0-.753-.112-.345-.12-.601-.385-.248-.272-.393-.705-.144-.432-.144-1.066V17.37h.665v3.101q0 .473.096.794.097.32.257.513.168.192.392.28.225.08.481.08.265 0 .49-.08.223-.088.392-.28.168-.193.264-.513t.096-.794v-3.1h.641v3.084q0 .634-.144 1.066-.144.433-.4.705-.249.265-.593.385-.345.112-.746.112zm3.302-.096V17.37h1.643q.4 0 .737.08.344.072.585.249.248.176.385.456.136.281.136.69 0 .617-.32.985-.321.369-.866.505l1.338 2.292h-.753l-1.266-2.22h-.954v2.22zm.665-2.765h.881q.618 0 .946-.248.329-.256.329-.77 0-.52-.329-.729-.328-.208-.946-.208h-.881zm4.768-.176-.248.801h1.578l-.248-.8q-.144-.442-.273-.874-.128-.441-.256-.898h-.032q-.12.457-.248.898-.129.432-.273.873zm-1.603 2.941 1.78-5.257h.753l1.779 5.257h-.714l-.496-1.603h-1.916l-.504 1.603zm5.057 0V17.37h.665v4.688h2.3v.57zm5.497 0V17.37h1.499q.44 0 .801.08.369.08.625.265.257.176.4.473.145.296.145.729 0 .416-.144.721-.136.305-.393.505-.256.2-.617.304-.352.097-.785.097h-.866v2.083zM33.651 20h.786q.689 0 1.017-.257.337-.264.337-.825 0-.57-.353-.786-.344-.224-1.033-.224h-.754zm3.871 2.627V17.37h3.029v.561h-2.364v1.65h1.995v.57h-1.995v1.907h2.444v.57zm4.223 0V17.37h1.643q.4 0 .737.08.345.072.585.249.249.176.385.456.136.281.136.69 0 .617-.32.985-.321.369-.866.505l1.338 2.292h-.753l-1.266-2.22h-.954v2.22zm.665-2.765h.882q.617 0 .945-.248.329-.256.329-.77 0-.52-.329-.729-.328-.208-.945-.208h-.882zm3.895 2.765V17.37h3.029v.561H46.97v1.78h2.003v.56H46.97v2.356zm5.825.096q-.4 0-.753-.112-.344-.12-.6-.385-.25-.272-.393-.705-.145-.432-.145-1.066V17.37h.666v3.101q0 .473.096.794.096.32.256.513.168.192.393.28.224.08.48.08.265 0 .49-.08.224-.088.392-.28.168-.193.265-.513.096-.32.096-.794v-3.1h.64v3.084q0 .634-.143 1.066-.145.433-.401.705-.249.265-.593.385-.345.112-.745.112zm3.302-.096V17.37h.802l1.01 2.805q.095.272.184.553l.192.545h.032q.096-.273.176-.545.088-.28.185-.553l.993-2.805h.81v5.257h-.625v-2.893q0-.352.032-.777.032-.425.056-.777h-.032l-.417 1.194-.994 2.724h-.44l-.994-2.724-.417-1.194h-.032q.024.352.048.777.032.425.032.777v2.893zm5.826 0V17.37h3.03v.561h-2.365v1.65h1.996v.57h-1.996v1.907h2.444v.57zm4.223 0V17.37h1.643q.4 0 .737.08.345.072.585.249.249.176.385.456.136.281.136.69 0 .617-.32.985-.32.369-.866.505l1.338 2.292h-.753l-1.266-2.22h-.954v2.22zm.665-2.765h.882q.617 0 .945-.248.329-.256.329-.77 0-.52-.329-.729-.328-.208-.945-.208h-.882z"/>
</svg>
